com\ex\system\AuthenticationStatus.class
com\ex\Service\UserDetailService.class
com\ex\system\BlabApplicationDataException.class
com\ex\system\Session.class
com\ex\Service\UserAuthentication.class
com\ex\system\ConnectionManager.class
com\ex\models\Reimbursment.class
com\ex\repository\UserRepository.class
com\ex\repository\JDBCReimbursment.class
com\ex\Service\ReimbursmentService.class
com\ex\Service\UserAuthenticationImpl.class
com\ex\web\Servlet.class
com\ex\repository\DaoRepo.class
com\ex\models\Employee.class
com\ex\Service\DataService.class
com\ex\Service\EmployeeService.class
com\ex\system\UserNotFoundException.class
com\ex\repository\JDBCEmployee.class
com\ex\repository\Repository.class
com\ex\system\ClientSession.class
